<svg style="display: none;" xmlns="http://www.w3.org/2000/svg" xmlns:xlink="http://www.w3.org/1999/xlink" version="1.1" xml:space="preserve">
  <symbol id="advicon-2" viewBox="0 0 261 283">
    <g transform="translate(0.000000, -1.000000)" fill="#229FFF">
      <path d="M137.963956,155.39354 L208.1119,188.68154 C209.865233,189.57214 211.326344,191.01754 212.203011,193.07614 C212.787456,194.82814 212.787456,197.16414 211.910789,198.90154 C210.449678,201.83614 207.819678,203.58814 204.605233,203.58814 C203.728567,203.58814 202.559678,203.29614 201.390789,202.71214 L126.567289,167.36554 C123.937289,165.92014 122.169344,163.27754 122.169344,160.35754 L122.169344,88.21894 C122.169344,84.13094 125.690622,80.62694 130.073956,80.62694 C134.457289,80.62694 137.963956,84.13094 137.963956,88.21894 L137.963956,155.39354 Z M260.142067,153.93354 C260.142067,225.48814 201.683011,283.61074 130.073956,283.61074 C58.4649,283.61074 0.00584444444,225.48814 0.00584444444,153.93354 C0.00584444444,82.37894 58.4649,23.96434 130.073956,23.96434 C150.237289,23.96434 170.1084,28.63634 188.226178,37.68834 L180.920622,10.53234 C179.751733,6.44434 182.396344,2.35634 186.195233,1.17374 C190.286344,0.31234 194.377456,2.64834 195.546344,6.44434 L207.527456,52.59494 C208.1119,54.63894 207.819678,56.68294 206.943011,58.42034 C205.774122,60.18694 204.313011,61.35494 202.267456,61.93894 L156.081733,73.91094 C154.036178,74.49494 151.990622,74.20294 150.237289,73.32694 C148.483956,72.15894 147.315067,70.40694 147.022844,68.65494 C146.4384,66.61094 146.730622,64.56694 147.607289,62.81494 C148.776178,61.06294 150.237289,59.89494 152.282844,59.31094 L181.212844,51.70434 C165.432844,43.82034 147.899511,39.73234 130.073956,39.73234 C66.9393444,39.73234 15.7858444,90.84694 15.7858444,153.93354 C15.7858444,216.72814 66.9393444,268.13474 130.073956,268.13474 C192.916344,268.13474 244.347456,216.72814 244.347456,153.93354 C244.347456,137.28954 240.8554,121.22954 233.827456,106.33754 C232.074122,102.23494 233.827456,97.56294 237.626344,95.81094 C241.732067,94.07354 246.393011,95.81094 248.160956,99.62154 C256.050956,116.83494 260.142067,134.95354 260.142067,153.93354 L260.142067,153.93354 Z"></path>
    </g>
  </symbol>

  <symbol id="advicon-3" viewBox="0 0 285 261">
    <path d="M161.113289,220.311934 L266.678631,79.1325902 L214.532604,79.1325902 L161.113289,220.311934 Z M203.084768,12.8981311 L156.658741,12.8981311 L212.941974,66.234459 L262.549262,66.234459 L203.084768,12.8981311 Z M195.135536,66.234459 L143.624193,17.4294426 L89.2489328,65.8865574 L186.5477,66.234459 L195.135536,66.234459 Z M186.5477,79.1325902 L81.6170424,78.7846885 L142.98559,234.605967 L202.132741,79.1325902 L186.5477,79.1325902 Z M22.1564671,66.234459 L70.4865493,66.234459 L130.268385,12.8981311 L79.7129876,12.8981311 L22.1564671,66.234459 Z M18.0231794,78.7846885 L123.59244,217.176525 L68.8998369,78.7846885 L18.0231794,78.7846885 Z M284.802412,72.1616721 C284.802412,73.9011803 284.48507,75.6449836 283.533042,76.6929836 L148.392166,257.614721 C147.122796,259.006328 145.528248,260.054328 143.941536,260.054328 L143.624193,260.054328 C142.033563,260.054328 140.446851,259.006328 139.169645,257.614721 L1.49002872,76.6929836 C-0.739204161,74.249082 -0.417943887,70.0699672 2.12471365,67.9739672 L73.9890698,1.39160656 C74.9410972,0.347901639 76.2104671,0 77.4837547,0 L77.8010972,0 L204.992741,0 C206.579453,0 207.856659,0.695803279 208.808686,1.74380328 L282.577097,67.9739672 C283.850385,69.0219672 284.48507,70.4178689 284.802412,72.1616721 L284.802412,72.1616721 Z" fill="#229FFF"></path>
  </symbol>

  <symbol id="badge" viewBox="0 0 177.2 177.2">
    <path style="fill:#DF0098;" d="M177.2,88.6c0,5.7-7.3,10.6-8.4,16c-1.1,5.5,3.8,12.9,1.6,18c-2.2,5.2-10.8,6.9-13.9,11.5
      c-3.1,4.6-1.4,13.3-5.4,17.2c-3.9,3.9-12.6,2.3-17.2,5.4c-4.6,3.1-6.3,11.7-11.5,13.9c-5.1,2.1-12.4-2.7-18-1.6
      c-5.4,1.1-10.3,8.4-16,8.4c-5.7,0-10.6-7.3-16-8.4c-5.5-1.1-12.9,3.8-18,1.6c-5.2-2.2-6.9-10.8-11.5-13.9
      c-4.6-3.1-13.3-1.4-17.2-5.4c-3.9-3.9-2.3-12.6-5.4-17.2c-3.1-4.6-11.7-6.3-13.9-11.5c-2.1-5.1,2.7-12.4,1.6-18
      C7.3,99.2,0,94.3,0,88.6c0-5.7,7.3-10.6,8.4-16c1.1-5.5-3.8-12.9-1.6-18c2.2-5.2,10.8-6.9,13.9-11.5C23.7,38.5,22,29.9,26,26
      c3.9-3.9,12.6-2.3,17.2-5.4c4.6-3.1,6.3-11.7,11.5-13.9c5.1-2.1,12.4,2.7,18,1.6C78,7.3,82.9,0,88.6,0c5.7,0,10.6,7.3,16,8.4
      c5.5,1.1,12.9-3.8,18-1.6c5.2,2.1,6.9,10.8,11.5,13.9c4.6,3.1,13.3,1.4,17.2,5.4c3.9,3.9,2.3,12.6,5.4,17.2
      c3.1,4.6,11.7,6.3,13.9,11.5c2.1,5.1-2.7,12.4-1.6,18C169.9,78,177.2,82.9,177.2,88.6"></path>
  </symbol>
</svg>
